Chapter 13 Factor Analysis and Principal Component Analysis | Principles of Psychological Assessment: With Applied Examples in R
…
13.4.2.7 Factor scores

cfaFactorScores <- predict(cfaModelFit)
as_tibble(cfaFactorScores)

# A tibble: 301 × 3
   visual      textual     speed      
   <lvn.mtrx>  <lvn.mtrx>  <lvn.mtrx> 
 1 -0.92073232 -0.07693423  0.11281023
 2 -0.19520708 -1.05331181  0.95659482
 3 -0.81349982 -1.87250811 -1.38614366
 4  0.49503094 -0.05856387 -0.43703595
 5 -0.53996904 -0.14328136  0.31161668
 6  0.01227091 -1.34477029  1.11883508
 7 -1.11133108  0.70245309  0.09234098
 8  0.06773093 -0.12964464 -0.86921095
 9 -0.24037979  0.77086642 -0.37231902
10 -1.17923042  0.31373626 -0.90155019
# … with 291 more rows
…
