Chapter 6 Structural Equation Modeling | Principles of Psychological Assessment: With Applied Examples in R
…
6.8.6 Modification indices

modificationindices(measurementModelFit, sort. = TRUE)

[1] lhs      op       rhs      mi       epc      sepc.lv  sepc.all sepc.nox
<0 rows> (or 0-length row.names)

6.8.7 Factor scores

as_tibble(predict(measurementModelFit))

# A tibble: 300 × 1
   latentFactor
   <lvn.mtrx>  
 1 -1.0963978  
 2 -1.1522043  
 3  0.6638866  
 4 -1.3214658  
 5  1.7245583  
 6  0.8962471  
 7  1.5769833  
 8 -1.4425620  
 9  0.3240618  
10         NA  
# … with 290 more rows
…
6.9.7 Factor scores

as_tibble(predict(cfaModelFit))

# A tibble: 301 × 3
   visual      textual     speed      
   <lvn.mtrx>  <lvn.mtrx>  <lvn.mtrx> 
 1 -0.90891121 -0.13897749  0.09928950
 2  0.05504485 -1.02327078  1.00971777
 3 -0.84635388 -1.89178504 -1.35691384
 4  0.46613185  0.01867839 -0.43801231
 5 -0.46231162 -0.12352306  0.31370056
 6  0.02585126 -1.34366645  1.14428315
 7 -1.09487033  0.66446259  0.07055384
 8  0.11876511 -0.10622255 -0.85928111
 9 -0.28230909  0.40854205  0.32344842
10 -1.17184874  0.09388286 -0.91475661
# … with 291 more rows
…
6.10.7 Factor scores

as_tibble(predict(semModelFit))

# A tibble: 75 × 3
   ind60       dem60       dem65     
   <lvn.mtrx>  <lvn.mtrx>  <lvn.mtrx>
 1 -0.80364259 -1.36195778 -4.3440891
 2  0.17251209 -1.23827044 -2.4739504
 3  0.98396545  1.64298875  5.6329248
 4  1.83152250  1.56916960  5.5375668
 5  1.28552382  1.17361635  4.0747048
 6  0.23604892  0.06371417 -0.0945153
 7  0.15992426  0.29007850  0.5572076
 8  0.05288791  0.21515335  1.0182559
 9  0.31284425 -0.63782033 -1.0173130
10  0.45120083  1.57321020  5.3451978
# … with 65 more rows
…
